/*
         * @copyright 2016 Sean Connelly (@voidqk), http://syntheti.cc
         * @license MIT
         * @preserve Project Home: https://github.com/voidqk/polybooljs
         */

/*
        object-assign
        (c) Sindre Sorhus
        @license MIT
        */

/*!
	Copyright (c) 2018 Jed Watson.
	Licensed under the MIT License (MIT), see
	http://jedwatson.github.io/classnames
*/

/*!
                                             * The buffer module from node.js, for the browser.
                                             *
                                             * @author   Feross Aboukhadijeh <https://feross.org>
                                             * @license  MIT
                                             */

/*!
              * Determine if an object is a Buffer
              *
              * @author   Feross Aboukhadijeh <https://feross.org>
              * @license  MIT
              */

/*!
              * pad-left <https://github.com/jonschlinkert/pad-left>
              *
              * Copyright (c) 2014-2015, Jon Schlinkert.
              * Licensed under the MIT license.
              */

/*!
              * repeat-string <https://github.com/jonschlinkert/repeat-string>
              *
              * Copyright (c) 2014-2015, Jon Schlinkert.
              * Licensed under the MIT License.
              */

/*!
         * The buffer module from node.js, for the browser.
         *
         * @author   Feross Aboukhadijeh <feross@feross.org> <http://feross.org>
         * @license  MIT
         */

/*!
         * The buffer module from node.js, for the browser.
         *
         * @author   Feross Aboukhadijeh <https://feross.org>
         * @license  MIT
         */

/*!
 * ApexCharts v3.49.2
 * (c) 2018-2024 ApexCharts
 * Released under the MIT License.
 */

/*! Native Promise Only
                                           v0.8.1 (c) Kyle Simpson
                                           MIT License: http://getify.mit-license.org
                                           */

/*! ieee754. BSD-3-Clause License. Feross Aboukhadijeh <https://feross.org/opensource> */

/*! safe-buffer. MIT License. Feross Aboukhadijeh <https://feross.org/opensource> */

/*! svg.draggable.js - v2.2.2 - 2019-01-08
* https://github.com/svgdotjs/svg.draggable.js
* Copyright (c) 2019 Wout Fierens; Licensed MIT */

/*! svg.filter.js - v2.0.2 - 2016-02-24
* https://github.com/wout/svg.filter.js
* Copyright (c) 2016 Wout Fierens; Licensed MIT */

/**
 * @license React
 * react-dom.production.min.js
 *
 * Copyright (c) Facebook, Inc. and its affiliates.
 *
 * This source code is licensed under the MIT license found in the
 * LICENSE file in the root directory of this source tree.
 */

/**
 * @license React
 * react-jsx-runtime.production.min.js
 *
 * Copyright (c) Facebook, Inc. and its affiliates.
 *
 * This source code is licensed under the MIT license found in the
 * LICENSE file in the root directory of this source tree.
 */

/**
 * @license React
 * react.production.min.js
 *
 * Copyright (c) Facebook, Inc. and its affiliates.
 *
 * This source code is licensed under the MIT license found in the
 * LICENSE file in the root directory of this source tree.
 */

/**
 * @license React
 * scheduler.production.min.js
 *
 * Copyright (c) Facebook, Inc. and its affiliates.
 *
 * This source code is licensed under the MIT license found in the
 * LICENSE file in the root directory of this source tree.
 */

/**
 * @remix-run/router v1.16.1
 *
 * Copyright (c) Remix Software Inc.
 *
 * This source code is licensed under the MIT license found in the
 * LICENSE.md file in the root directory of this source tree.
 *
 * @license MIT
 */

/**
 * React Router DOM v6.23.1
 *
 * Copyright (c) Remix Software Inc.
 *
 * This source code is licensed under the MIT license found in the
 * LICENSE.md file in the root directory of this source tree.
 *
 * @license MIT
 */

/**
 * React Router v6.23.1
 *
 * Copyright (c) Remix Software Inc.
 *
 * This source code is licensed under the MIT license found in the
 * LICENSE.md file in the root directory of this source tree.
 *
 * @license MIT
 */
