{
  "files": {
    "main.css": "/static/css/main.4e5950b2.css",
    "main.js": "/static/js/main.a2b4f8da.js",
    "static/media/logo.svg": "/static/media/logo.6ce24c58023cc2f8fd88fe9d219db6c6.svg",
    "index.html": "/index.html",
    "main.4e5950b2.css.map": "/static/css/main.4e5950b2.css.map",
    "main.a2b4f8da.js.map": "/static/js/main.a2b4f8da.js.map"
  },
  "entrypoints": [
    "static/css/main.4e5950b2.css",
    "static/js/main.a2b4f8da.js"
  ]
}